k_ginerdu = {
	1002.1.1 = {
		liege = e_bulwar
		holder = sun_elvish0034	#Veharia
	}
}

c_ginerdu = {
	1002.1.1 = {
		liege = k_ginerdu
		holder = sun_elvish0034 # Veharia Lezuir
	}
}

c_irrliam = {
	1002.1.1 = {
		liege = k_ginerdu
		holder = sun_elvish0028 # Irrlion Irrliazuir
	}
}
