#k_kelharssara
##d_gelkalis
###c_gelkalis
665 = {		#Gelkaris

    # Misc
    culture = gelkar
    religion = old_bulwari_sun_cult
	holding = castle_holding

    # History
}

###c_as_mis
664 = {		#As-mis

    # Misc
    culture = gelkar
    religion = old_bulwari_sun_cult
	holding = castle_holding

    # History
}

##d_lawassar
###c_lawassar
655 = {		#lawassar

    # Misc
    culture = gelkar
    religion = old_bulwari_sun_cult
	holding = castle_holding

    # History
}

###c_peruskam
656 = {		#Peruskam

    # Misc
    culture = gelkar
    religion = old_bulwari_sun_cult
	holding = castle_holding

    # History
}

##d_elusadul
###c_elusadul
654 = {		#Elusadul

    # Misc
    culture = gelkar
    religion = old_bulwari_sun_cult
	holding = castle_holding

    # History
}

###c_akurmbag
652 = {		#Akurmbag

    # Misc
    culture = gelkar
    religion = old_bulwari_sun_cult
	holding = castle_holding

    # History
}

###c_kihayanbar
653 = {		#Kihayanbar

    # Misc
    culture = gelkar
    religion = old_bulwari_sun_cult
	holding = castle_holding

    # History
}
